[
    {
        "pk": "00032462-5fe9-4e15-a3f0-0bb79b021bb5",
        "fields": {
            "username": "Loma",
            "loc_lat": 48.15585,
            "loc_lng": -1.94502
        }
    },
    {
        "pk": "0026cd10-b252-42d6-a01e-d4107c1a73b3",
        "fields": {
            "username": "Bizzarti",
            "loc_lat": 49.5464,
            "loc_lng": 0.129744
        }
    }
]